{
  "project_info": {
    "project_number": "474164958991",
    "firebase_url": "https://mypsychiatrist-c35b6.firebaseio.com",
    "project_id": "mypsychiatrist-c35b6",
    "storage_bucket": "mypsychiatrist-c35b6.appspot.com"
  },
  "client": [
    {
      "client_info": {
        "mobilesdk_app_id": "1:474164958991:android:63f27b21fbf5aa44",
        "android_client_info": {
          "package_name": "com.example.amad.mypsychiatrist"
        }
      },
      "oauth_client": [
        {
          "client_id": "474164958991-rq1ie0q69jct35uu6pguglhg3lv7po90.apps.googleusercontent.com",
          "client_type": 1,
          "android_info": {
            "package_name": "com.example.amad.mypsychiatrist",
            "certificate_hash": "34e2f600dfb40a746ee8548ec140b6d1542402cb"
          }
        },
        {
          "client_id": "474164958991-1s27oefqct9vck14pesh79d32ggrprb5.apps.googleusercontent.com",
          "client_type": 3
        }
      ],
      "api_key": [
        {
          "current_key": "AIzaSyCxtMUz0MYN2LHrd1brDecvPHmyBboktLc"
        }
      ],
      "services": {
        "analytics_service": {
          "status": 1
        },
        "appinvite_service": {
          "status": 2,
          "other_platform_oauth_client": [
            {
              "client_id": "474164958991-1s27oefqct9vck14pesh79d32ggrprb5.apps.googleusercontent.com",
              "client_type": 3
            }
          ]
        },
        "ads_service": {
          "status": 2
        }
      }
    }
  ],
  "configuration_version": "1"
}